{
  "connection": "default",
  "collectionName": "product",
  "info": {
    "name": "product",
    "description": ""
  },
  "options": {
    "timestamps": [
      "createdAt",
      "updatedAt"
    ]
  },
  "attributes": {
    "productName": {
      "type": "string"
    },
    "image": {
      "type": "string"
    },
    "seller": {
      "model": "user",
      "via": "products",
      "plugin": "users-permissions"
    },
    "price": {
      "type": "integer"
    }
  }
}